^E:\СЕТИ\PROJECT\GENERATOR_IP\GENERATOR_IP\DEBUG\GENERATOR.RES|E:\СЕТИ\PROJECT\GENERATOR_IP\GENERATOR_IP\DEBUG\MAIN.OBJ|E:\СЕТИ\PROJECT\GENERATOR_IP\GENERATOR_IP\DEBUG\STDAFX.OBJ
/OUT:"E:\СЕТИ\PROJECT\GENERATOR_IP\DEBUG\GENERATOR_IP.EXE" /INCREMENTAL /NOLOGO kernel32.lib user32.lib gdi32.lib winspool.lib comdlg32.lib advapi32.lib shell32.lib ole32.lib oleaut32.lib uuid.lib odbc32.lib odbccp32.lib /MANIFEST /MANIFESTUAC:"level='asInvoker' uiAccess='false'" /manifest:embed /DEBUG /PDB:"E:\СЕТИ\PROJECT\GENERATOR_IP\DEBUG\GENERATOR_IP.PDB" /TLBID:1 /DYNAMICBASE /NXCOMPAT /IMPLIB:"E:\СЕТИ\PROJECT\GENERATOR_IP\DEBUG\GENERATOR_IP.LIB" /MACHINE:X86 DEBUG\GENERATOR.RESDEBUG\MAIN.OBJDEBUG\STDAFX.OBJ
^C:\USERS\EVGENIA\DOWNLOADS\SETI\СЕТИ\PROJECT\GENERATOR_IP\GENERATOR_IP\DEBUG\GENERATOR.RES|C:\USERS\EVGENIA\DOWNLOADS\SETI\СЕТИ\PROJECT\GENERATOR_IP\GENERATOR_IP\DEBUG\MAIN.OBJ|C:\USERS\EVGENIA\DOWNLOADS\SETI\СЕТИ\PROJECT\GENERATOR_IP\GENERATOR_IP\DEBUG\STDAFX.OBJ
/OUT:"C:\USERS\EVGENIA\DOWNLOADS\SETI\СЕТИ\PROJECT\GENERATOR_IP\DEBUG\GENERATOR_IP.EXE" /INCREMENTAL /NOLOGO kernel32.lib user32.lib gdi32.lib winspool.lib comdlg32.lib advapi32.lib shell32.lib ole32.lib oleaut32.lib uuid.lib odbc32.lib odbccp32.lib /MANIFEST /MANIFESTUAC:"level='asInvoker' uiAccess='false'" /manifest:embed /DEBUG /PDB:"C:\USERS\EVGENIA\DOWNLOADS\SETI\СЕТИ\PROJECT\GENERATOR_IP\DEBUG\GENERATOR_IP.PDB" /TLBID:1 /DYNAMICBASE /NXCOMPAT /IMPLIB:"C:\USERS\EVGENIA\DOWNLOADS\SETI\СЕТИ\PROJECT\GENERATOR_IP\DEBUG\GENERATOR_IP.LIB" /MACHINE:X86 DEBUG\GENERATOR.RESDEBUG\MAIN.OBJDEBUG\STDAFX.OBJ
^C:\USERS\USER\DESKTOP\GENERATOR_IP\GENERATOR_IP\DEBUG\GENERATOR.RES|C:\USERS\USER\DESKTOP\GENERATOR_IP\GENERATOR_IP\DEBUG\MAIN.OBJ|C:\USERS\USER\DESKTOP\GENERATOR_IP\GENERATOR_IP\DEBUG\STDAFX.OBJ
/OUT:"C:\USERS\USER\DESKTOP\GENERATOR_IP\DEBUG\GENERATOR_IP.EXE" /INCREMENTAL /NOLOGO KERNEL32.LIB USER32.LIB GDI32.LIB WINSPOOL.LIB COMDLG32.LIB ADVAPI32.LIB SHELL32.LIB OLE32.LIB OLEAUT32.LIB UUID.LIB ODBC32.LIB ODBCCP32.LIB /MANIFEST /MANIFESTUAC:"level='asInvoker' uiAccess='false'" /manifest:embed /DEBUG:FASTLINK /PDB:"C:\USERS\USER\DESKTOP\GENERATOR_IP\DEBUG\GENERATOR_IP.PDB" /TLBID:1 /DYNAMICBASE /NXCOMPAT /IMPLIB:"C:\USERS\USER\DESKTOP\GENERATOR_IP\DEBUG\GENERATOR_IP.LIB" /MACHINE:X86 DEBUG\GENERATOR.RES
DEBUG\MAIN.OBJ
DEBUG\STDAFX.OBJ
^E:\LESHA\УЧЕБА\СЕТИ\LAB3-4\GENERATOR_IP\GENERATOR_IP\DEBUG\GENERATOR.RES|E:\LESHA\УЧЕБА\СЕТИ\LAB3-4\GENERATOR_IP\GENERATOR_IP\DEBUG\MAIN.OBJ|E:\LESHA\УЧЕБА\СЕТИ\LAB3-4\GENERATOR_IP\GENERATOR_IP\DEBUG\STDAFX.OBJ
/OUT:"E:\LESHA\УЧЕБА\СЕТИ\LAB3-4\GENERATOR_IP\DEBUG\GENERATOR_IP.EXE" /INCREMENTAL /NOLOGO KERNEL32.LIB USER32.LIB GDI32.LIB WINSPOOL.LIB COMDLG32.LIB ADVAPI32.LIB SHELL32.LIB OLE32.LIB OLEAUT32.LIB UUID.LIB ODBC32.LIB ODBCCP32.LIB /MANIFEST /MANIFESTUAC:"level='asInvoker' uiAccess='false'" /manifest:embed /DEBUG:FASTLINK /PDB:"E:\LESHA\УЧЕБА\СЕТИ\LAB3-4\GENERATOR_IP\DEBUG\GENERATOR_IP.PDB" /TLBID:1 /DYNAMICBASE /NXCOMPAT /IMPLIB:"E:\LESHA\УЧЕБА\СЕТИ\LAB3-4\GENERATOR_IP\DEBUG\GENERATOR_IP.LIB" /MACHINE:X86 DEBUG\GENERATOR.RES
DEBUG\MAIN.OBJ
DEBUG\STDAFX.OBJ
