^C:\USERS\USER\DESKTOP\GENERATOR_IP\GENERATOR_IP\DEBUG\GENERATOR.RES|C:\USERS\USER\DESKTOP\GENERATOR_IP\GENERATOR_IP\DEBUG\MAIN.OBJ|C:\USERS\USER\DESKTOP\GENERATOR_IP\GENERATOR_IP\DEBUG\STDAFX.OBJ
C:\USERS\USER\DESKTOP\GENERATOR_IP\DEBUG\GENERATOR_IP.EXE
C:\USERS\USER\DESKTOP\GENERATOR_IP\DEBUG\GENERATOR_IP.ILK
C:\USERS\USER\DESKTOP\GENERATOR_IP\DEBUG\GENERATOR_IP.PDB
^E:\LESHA\УЧЕБА\СЕТИ\LAB3-4\GENERATOR_IP\GENERATOR_IP\DEBUG\GENERATOR.RES|E:\LESHA\УЧЕБА\СЕТИ\LAB3-4\GENERATOR_IP\GENERATOR_IP\DEBUG\MAIN.OBJ|E:\LESHA\УЧЕБА\СЕТИ\LAB3-4\GENERATOR_IP\GENERATOR_IP\DEBUG\STDAFX.OBJ
E:\LESHA\учеба\Сети\LAB3-4\GENERATOR_IP\DEBUG\GENERATOR_IP.ILK
E:\LESHA\учеба\Сети\LAB3-4\GENERATOR_IP\DEBUG\GENERATOR_IP.EXE
E:\LESHA\УЧЕБА\СЕТИ\LAB3-4\GENERATOR_IP\DEBUG\GENERATOR_IP.PDB
